1 326 393 1047 179 238 86 403 620 721 820 2
1 581 86 1170 745 2
1 106 684 770 1363 238 1061 449 31 193 2
1 326 1118 636 136 2
1 995 271 641 1360 2
1 326 1304 2
1 1310 659 2
1 750 849 1259 2
1 298 659 55 1276 2
1 69 971 238 377 267 37 500 2
1 1253 377 749 2
1 845 377 820 808 2
1 55 1175 310 620 247 2
1 514 908 2
1 1171 1123 332 995 572 682 999 2
1 746 1008 1259 2
1 620 22 820 238 160 620 2
1 326 640 106 918 331 849 2
1 1236 929 238 1103 367 820 733 296 61 588 2
1 86 73 326 821 534 1124 2
1 995 1072 326 565 193 623 238 437 61 616 2
1 326 814 1344 1171 995 674 973 2
1 927 1171 381 82 943 906 929 2
1 326 13 820 272 180 770 299 2
1 1157 370 651 1088 2
1 1147 671 1119 932 429 849 982 529 2
1 377 212 860 298 1259 2
1 478 720 331 1259 2
1 514 860 238 1187 2
1 544 895 331 825 2
1 86 55 1001 1338 1308 962 2
1 748 326 1304 572 822 298 123 2
1 117 660 1212 2
1 515 86 309 636 1297 238 1001 720 699 820 1330 2
1 1002 706 1259 2
1 844 310 620 1300 1244 820 1054 849 1259 2
1 1288 1165 1259 2
1 1356 326 238 1137 1273 849 2
1 459 420 620 28 1370 2
1 553 2
1 86 331 1170 656 1175 2
1 482 849 357 2
1 482 849 357 2
1 68 238 459 1354 22 820 2
1 594 2
1 326 226 929 1259 2
1 326 1335 569 849 238 173 1070 674 536 1284 1173 904 2
1 53 674 659 961 820 693 2
1 144 238 1131 1354 326 652 820 123 2
1 1131 1238 86 599 670 477 849 2
1 326 1001 1344 75 355 326 571 849 1131 272 2
1 1359 827 849 238 86 606 620 326 230 820 796 2
1 1319 820 796 1259 238 86 23 865 988 2
1 1034 642 694 1259 2
1 649 377 981 2
1 674 694 759 326 2
1 1131 238 1131 272 2
1 1131 272 510 15 55 620 643 849 2
1 602 1171 246 238 991 1259 2
1 844 86 1028 50 326 2
1 86 903 995 867 23 978 849 2
1 748 86 1148 65 877 2
1 1217 342 2
1 674 459 1281 238 728 1242 2
1 1213 672 55 225 95 751 239 1183 2
1 55 734 936 788 2
1 144 991 2
1 326 674 326 1064 674 820 123 2
1 660 923 86 1320 1259 2
1 167 326 802 748 417 121 266 280 849 2
1 504 52 238 818 521 748 326 572 822 1212 820 123 2
1 377 1175 326 720 63 1252 706 2
1 1353 2
1 1101 326 449 717 1203 263 820 539 2
1 1304 238 86 144 903 263 674 1030 2
1 319 820 2
1 557 436 895 849 331 1054 2
1 272 55 1001 1236 820 238 1304 2
1 1353 615 2
1 86 541 1060 2
1 544 326 636 325 331 238 86 55 771 2
1 86 343 636 324 326 1175 1175 1150 2
1 65 326 954 474 233 2
1 656 326 691 820 322 2
1 968 1175 86 393 674 96 1182 1242 839 2
1 748 377 1143 2
1 86 268 1101 377 656 927 1103 506 331 862 2
1 86 636 1103 449 776 1131 123 558 2
1 377 368 1171 1001 774 321 2
1 806 87 2
1 1171 1131 820 155 1247 359 534 133 928 2
1 514 306 397 274 2
1 1131 55 24 86 2
1 1131 620 86 820 300 2
1 326 1175 620 1354 849 2
1 1058 723 798 1231 849 2
1 86 636 903 1103 23 765 820 775 2
1 86 636 326 656 414 2
1 1171 802 1257 849 1144 238 198 2
1 915 849 326 307 2
1 326 656 700 822 455 1008 1259 2
1 1103 815 442 849 2
1 958 61 925 2
1 1021 701 647 133 2
1 945 674 117 2
1 381 1227 151 671 215 820 1251 2
1 326 1000 1259 2
1 86 1260 1081 331 84 2
1 590 238 1266 2
1 86 636 995 148 849 2
1 1171 1045 814 1140 2
1 888 2
1 884 1077 238 1062 312 849 326 2
1 166 820 981 2
1 161 2
1 227 2
1 792 1171 820 81 2
1 1129 134 1117 340 2
1 1075 326 635 2
1 911 238 377 1001 291 131 22 820 155 2
1 995 61 720 91 238 620 1008 238 924 1259 2
1 924 238 326 144 1141 1036 86 2
1 995 869 238 1031 1008 1259 2
1 911 238 995 620 869 2
1 1295 326 996 248 2
1 990 903 1000 2
1 167 620 929 2
1 387 927 86 106 50 326 2
1 436 2
1 436 238 1012 620 534 1060 155 2
1 1171 514 263 820 1213 539 2
1 1236 820 238 1145 2
1 1001 820 2
1 459 1311 1104 820 2
1 660 727 849 2
1 768 81 822 849 2
1 1030 1259 2
1 784 1342 2
1 551 685 2
1 283 897 1211 684 964 412 2
1 876 238 9 926 326 849 2
1 1130 238 1014 2
1 414 238 620 1071 426 326 820 2
1 178 802 561 849 40 266 86 2
1 310 167 86 814 461 298 958 923 326 2
1 86 820 1190 421 910 850 1000 238 876 1145 2
1 326 1358 1064 1357 474 238 1320 1000 2
1 326 620 990 1259 2
1 1120 326 449 785 1160 245 2
1 131 326 22 662 1121 820 155 2
1 876 238 326 393 162 86 1175 820 2
1 1175 327 238 334 2
1 326 1085 295 756 820 617 929 2
1 995 527 849 89 86 820 1192 2
1 1174 61 797 1349 148 2
1 1103 55 620 2
1 1171 984 866 1000 2
1 326 615 500 589 1267 820 514 2
1 1145 238 149 514 838 2
1 620 86 2
1 621 489 1234 820 708 961 2
1 1149 326 671 326 1057 1012 1270 820 1153 2
1 66 2
1 995 1175 820 331 2
1 310 1171 952 506 331 2
1 319 584 820 238 750 55 620 584 2
1 68 238 310 945 584 1236 849 2
1 172 929 238 696 2
1 1171 701 345 1236 1175 820 2
1 556 107 801 316 651 595 820 1016 2
1 1034 377 660 748 326 832 822 459 1071 2
1 86 1354 1009 636 820 2
1 326 620 750 368 820 1259 2
1 990 1001 671 831 388 123 720 1013 1259 2
1 356 2
1 945 674 1299 501 238 812 467 2
1 1145 1259 2
1 1131 1031 263 2
1 9 645 326 2
1 620 327 238 343 1171 55 903 86 656 1211 241 997 2
1 86 144 1177 459 820 893 2
1 686 1175 272 559 820 1177 958 2
1 86 1353 945 839 849 238 514 676 22 2
1 219 671 86 282 61 676 2
1 461 662 704 820 610 77 1071 1341 2
1 310 101 1372 659 961 157 820 1054 2
1 1371 52 662 77 2
1 39 544 326 1358 1369 2
1 86 820 165 248 326 820 999 1239 2
1 556 86 159 1001 236 1259 2
1 960 110 326 1001 210 662 2
1 1344 86 2
1 86 1295 310 58 341 55 514 2
1 718 60 326 2
1 674 1181 748 357 1139 849 2
1 68 2
1 814 923 86 662 858 1008 2
1 960 266 326 506 820 2
1 855 971 238 86 1295 326 605 820 494 2
1 377 636 927 86 584 2
1 1185 266 86 506 820 1301 1323 2
1 229 2
1 310 1031 229 2
1 794 331 631 2
1 86 674 694 2
1 326 2
1 86 1204 436 2
1 7 238 86 393 875 849 2
1 7 238 793 86 1175 820 283 2
1 674 176 820 566 2
1 1163 292 2
1 841 81 2
1 1101 326 593 2
1 11 2
1 656 155 1017 310 629 2
1 39 995 156 660 1110 1171 2
1 86 343 1277 260 2
1 674 1131 537 531 525 2
1 1284 849 995 2
1 923 33 742 2
1 441 1110 33 820 147 2
1 86 343 534 67 2
1 945 1122 86 1057 1236 849 2
1 671 52 164 1354 1083 2
1 909 313 727 238 164 1091 849 2
1 243 400 238 1131 1354 326 820 217 1259 2
1 1307 620 674 1131 2
1 564 326 984 1001 1074 155 2
1 201 313 76 238 660 1167 1006 2
1 404 2
1 574 326 2
1 917 379 701 720 963 2
1 1045 86 55 996 48 2
1 219 1171 620 720 617 820 2
1 39 238 1171 660 719 617 2
1 996 461 278 2
1 996 1063 1188 1295 187 2
1 485 820 55 1041 849 2
1 86 519 901 820 2
1 326 984 656 148 617 238 1057 2
1 556 1171 1097 2
1 326 514 362 14 2
1 1131 620 534 8 289 2
1 86 514 2
1 156 660 362 14 2
1 1236 2
1 84 326 2
1 310 326 1313 843 820 929 1259 2
1 1090 266 86 907 1370 2
1 1031 265 441 482 97 929 2
1 441 329 2
1 540 849 2
1 326 674 1046 155 929 1259 2
1 86 1040 903 2
1 1066 29 820 2
1 326 505 1132 1196 2
1 789 238 435 238 1084 306 929 2
1 612 1171 720 393 224 849 2
1 326 324 995 716 2
1 748 478 820 222 65 877 929 2
1 1095 377 1056 256 238 779 1285 1156 2
1 1280 86 684 950 662 659 820 1111 857 393 236 1259 2
1 1101 326 814 923 377 748 478 820 422 155 140 2
1 377 720 324 86 741 500 2
1 326 156 891 674 478 2
1 326 1175 331 1259 2
1 498 238 498 238 598 238 86 1260 106 1009 283 849 2
1 7 2
1 377 135 849 86 1295 436 2
1 793 377 820 1322 684 528 1008 2
1 326 720 146 820 81 2
1 683 636 179 748 995 663 2
1 728 849 2
1 1347 1327 37 1242 2
1 377 1346 1171 1001 30 2
1 1171 1249 929 2
1 326 563 929 2
1 326 660 636 903 263 674 1030 2
1 154 578 238 154 578 2
1 106 238 1320 2
1 1171 636 927 1111 925 342 2
1 449 755 858 153 1259 2
1 598 238 1171 720 722 1323 285 820 2
1 120 820 823 820 991 849 1259 2
1 326 1175 331 1259 2
1 377 29 849 86 1295 436 2
1 979 509 238 377 55 1001 584 2
1 326 143 1068 238 1304 1259 2
1 378 238 466 2
1 615 500 995 153 1259 2
1 630 238 620 327 238 1365 1071 820 2
1 337 2
1 620 820 238 11 849 2
1 21 59 849 1259 2
1 651 214 1171 2
1 683 945 333 849 2
1 1321 2
1 459 720 1076 1122 228 238 1309 2
1 887 275 2
1 1034 1259 2
1 674 383 890 756 535 2
1 337 238 337 2
1 137 849 2
1 337 238 337 2
1 86 656 465 238 126 1257 326 410 589 2
1 510 927 86 50 849 929 1259 2
1 86 375 61 1005 2
1 337 238 337 238 337 238 387 22 2
1 387 22 2
1 674 310 1157 238 86 55 50 849 2
1 337 238 1282 342 2
1 795 720 1370 820 2
1 305 849 238 1304 2
1 86 46 342 539 2
1 326 867 748 1131 807 86 1179 961 2
1 118 820 910 238 364 608 849 2
1 364 607 594 849 2
1 1102 2
1 220 1209 238 266 849 873 591 2
1 1034 1259 2
1 1283 674 964 831 123 820 155 2
1 674 964 820 331 123 1259 2
1 1309 2
1 1309 2
1 86 1122 238 906 238 876 2
1 86 636 377 802 1344 326 849 2
1 1309 2
1 1291 820 1252 2
1 326 61 35 1008 1259 2
1 364 872 2
1 1001 720 692 386 86 2
1 28 632 1208 2
1 1250 238 86 945 232 65 326 305 2
1 310 620 326 820 1054 849 238 86 820 1057 2
1 326 664 399 1209 667 1259 2
1 504 52 238 211 194 813 1155 2
1 39 326 952 61 1212 2
1 326 461 1131 920 721 1259 2
1 556 377 424 1295 326 1175 1213 668 86 820 1054 2
1 86 977 620 636 903 377 811 1361 331 2
1 86 381 660 1035 474 2
1 624 521 500 820 158 2
1 326 1001 254 86 822 251 2
1 308 820 238 1116 2
1 945 399 238 746 1008 1259 2
1 1079 1164 2
1 326 403 1044 130 849 1008 1259 2
1 86 46 344 443 820 1320 678 2
1 545 86 445 1196 2
1 1367 571 1236 2
1 1211 1309 19 1200 1295 436 2
1 369 1124 1295 436 820 323 238 916 377 593 2
1 1034 1317 1171 1259 2
1 22 326 945 449 764 820 528 326 820 633 2
1 995 674 439 791 943 2
1 55 406 2
1 993 1146 144 816 1151 2
1 148 1259 2
1 86 712 326 1237 2
1 598 238 326 1175 820 911 2
1 469 238 170 238 1125 2
1 86 799 947 326 238 714 2
1 1018 326 690 945 1009 603 730 2
1 995 339 1240 55 544 2
1 1071 327 2
1 221 326 849 238 258 929 2
1 514 775 2
1 86 1354 326 820 1158 2
1 720 331 1205 1332 1259 2
1 1107 242 1136 1175 2
1 852 995 820 155 814 195 2
1 1295 1107 306 857 1032 820 430 2
1 326 945 814 839 459 238 1221 969 1259 2
1 1131 620 86 1295 326 701 820 122 2
1 556 326 820 1057 636 927 326 903 238 995 1106 144 1344 326 1259 2
1 1095 326 636 283 315 2
1 61 1236 238 86 1170 620 2
1 401 1259 2
1 154 578 674 973 1259 2
1 154 578 263 61 1236 238 61 1212 2
1 1095 326 923 86 839 459 2
1 326 481 86 238 326 1001 674 459 1166 474 376 2
1 86 570 849 2
1 86 1096 604 263 510 802 584 849 2
1 86 760 263 2
1 86 115 849 326 297 859 578 2
1 319 748 377 555 2
1 1301 983 1000 1259 2
1 143 263 124 1222 820 2
1 326 996 143 666 1296 2
1 86 110 2
1 39 154 578 2
1 86 144 903 2
1 748 705 277 2
1 510 238 86 55 1344 326 849 238 55 567 326 849 2
1 39 326 660 1256 86 2
1 674 1328 1003 814 1203 238 401 1259 2
1 86 953 880 2
1 401 238 74 2
1 620 820 2
1 86 144 903 238 114 2
1 86 265 46 2
1 1271 238 1304 238 1271 2
1 474 937 820 1258 620 331 1259 2
1 674 861 1157 2
1 1216 2
1 999 1109 461 662 1146 1071 571 849 2
1 1344 241 394 849 436 2
1 1344 377 86 903 849 2
1 319 923 596 1320 820 2
1 557 268 280 849 1131 1193 2
1 1001 720 49 820 2
1 319 820 2
1 389 319 1344 326 921 820 2
1 86 903 2
1 319 65 326 822 1212 820 123 2
1 556 326 620 1071 923 86 820 2
1 598 2
1 326 674 459 1106 1259 2
1 1034 1259 2
1 86 46 326 820 726 2
1 86 634 326 820 395 238 86 802 392 849 238 598 2
1 508 1295 86 820 898 1278 200 216 2
1 326 674 1316 984 23 900 238 201 1008 1259 2
1 556 326 962 847 849 238 86 480 674 206 592 2
1 369 684 615 86 842 2
1 326 393 927 377 677 238 819 894 2
1 1131 1209 177 205 2
1 326 1315 995 483 2
1 326 815 674 681 713 849 2
1 326 903 1008 2
1 377 998 393 702 820 2
1 377 998 393 702 1259 2
1 956 532 2
1 1171 399 985 327 2
1 266 1152 1184 58 2
1 761 238 1324 2
1 1171 593 2
1 1099 674 459 2
1 324 1171 605 2
1 750 849 238 132 849 2
1 877 2
1 326 50 1301 354 1265 820 1060 155 1008 1259 2
1 1245 382 2
1 589 238 966 2
1 86 769 326 779 636 179 929 238 632 800 2
1 326 510 945 131 347 650 605 2
1 86 375 720 539 2
1 761 238 761 238 995 57 2
1 86 720 1239 820 539 238 86 265 1361 342 506 820 1295 362 820 2
1 1046 474 238 1046 474 2
1 326 820 539 737 620 1180 820 2
1 815 271 238 945 674 1301 1370 530 424 2
1 1301 1122 1309 820 155 238 1103 1175 660 1203 1301 155 2
1 86 1361 342 506 820 1295 362 820 2
1 720 1076 2
1 86 238 86 174 995 620 1260 927 326 860 238 671 929 2
1 86 689 326 636 903 399 2
1 1236 849 238 204 2
1 620 929 2
1 1301 155 1294 1053 2
1 620 820 2
1 1131 620 790 695 820 487 1207 2
1 326 538 59 849 1259 2
1 209 568 2
1 1352 326 635 2
1 1301 238 1122 1309 820 1209 238 671 929 2
1 1103 1060 155 945 1017 427 820 2
1 789 238 1202 2
1 100 480 2
1 86 1170 620 2
1 1290 2
1 945 449 923 326 143 459 318 2
1 20 1131 111 1354 534 496 820 123 2
1 86 814 923 326 2
1 544 895 331 825 2
1 1189 674 398 326 849 2
1 189 1086 238 86 514 1317 238 326 867 1295 86 1175 820 2
1 326 867 620 750 324 86 1175 820 238 326 563 929 2
1 326 421 1260 22 2
1 326 393 949 995 2
1 86 393 905 589 582 2
1 514 86 820 980 2
1 844 1131 735 17 2
1 86 636 326 816 461 820 1003 589 858 2
1 1131 86 864 71 2
1 1009 303 945 143 1310 659 318 2
1 326 660 972 86 2
1 972 326 1259 2
1 86 671 326 864 1261 238 560 2
1 620 238 1145 2
1 960 972 1131 1225 153 2
1 349 995 1203 1252 2
1 674 168 284 820 1355 2
1 86 421 953 234 831 358 2
1 510 945 1201 2
1 1232 1030 2
1 326 820 731 991 849 2
1 1071 327 238 326 674 1220 331 2
1 86 46 518 1236 1303 2
